{
  "project_info": {
    "project_number": "453177226976",
    "project_id": "authentiocationdav1",
    "storage_bucket": "authentiocationdav1.appspot.com"
  },
  "client": [
    {
      "client_info": {
        "mobilesdk_app_id": "1:453177226976:android:6137a6452619794a0fc285",
        "android_client_info": {
          "package_name": "com.example.authentication"
        }
      },
      "oauth_client": [
        {
          "client_id": "453177226976-nnep24jshc1kmgnvsdg0f4nn5upg9fkc.apps.googleusercontent.com",
          "client_type": 3
        }
      ],
      "api_key": [
        {
          "current_key": "AIzaSyD2x2kE-tfDbjTasdxD73TOYrZfL0GD-rs"
        }
      ],
      "services": {
        "appinvite_service": {
          "other_platform_oauth_client": [
            {
              "client_id": "453177226976-nnep24jshc1kmgnvsdg0f4nn5upg9fkc.apps.googleusercontent.com",
              "client_type": 3
            }
          ]
        }
      }
    }
  ],
  "configuration_version": "1"
}